\relax 
\providecommand\hyper@newdestlabel[2]{}
\providecommand\HyperFirstAtBeginDocument{\AtBeginDocument}
\HyperFirstAtBeginDocument{\ifx\hyper@anchor\@undefined
\global\let\oldcontentsline\contentsline
\gdef\contentsline#1#2#3#4{\oldcontentsline{#1}{#2}{#3}}
\global\let\oldnewlabel\newlabel
\gdef\newlabel#1#2{\newlabelxx{#1}#2}
\gdef\newlabelxx#1#2#3#4#5#6{\oldnewlabel{#1}{{#2}{#3}}}
\AtEndDocument{\ifx\hyper@anchor\@undefined
\let\contentsline\oldcontentsline
\let\newlabel\oldnewlabel
\fi}
\fi}
\global\let\hyper@last\relax 
\gdef\HyperFirstAtBeginDocument#1{#1}
\providecommand*\HyPL@Entry[1]{}
\HyPL@Entry{0<</S/r>>}
\select@language {english}
\@writefile{toc}{\select@language {english}}
\@writefile{lof}{\select@language {english}}
\@writefile{lot}{\select@language {english}}
\HyPL@Entry{1<</S/r>>}
\@writefile{toc}{\renewcommand {\@dotsep }{400}}
\@writefile{toc}{\contentsline {chapter}{\bf  {ACKNOWLEDGMENTS}}{iii}{section*.1}}
\@writefile{toc}{\renewcommand {\@dotsep }{400}}
\@writefile{toc}{\renewcommand {\@dotsep }{400}}
\@writefile{toc}{\contentsline {chapter}{\bf  {ABSTRACT (ENGLISH)}}{iv}{section*.2}}
\@writefile{toc}{\renewcommand {\@dotsep }{400}}
\@writefile{toc}{\renewcommand {\@dotsep }{400}}
\@writefile{toc}{\contentsline {chapter}{\bf  {ABSTRACT (THAI)}}{v}{section*.3}}
\@writefile{toc}{\renewcommand {\@dotsep }{400}}
\@writefile{toc}{\thispagestyle {fancy}}
\@writefile{toc}{\fancyhead [L]{}}
\@writefile{toc}{\fancyhead [R]{\header  \thepage }}
\@writefile{lot}{\thispagestyle {fancy}}
\@writefile{toc}{\renewcommand {\@dotsep }{400}}
\@writefile{toc}{\contentsline {chapter}{\bfseries  LIST OF TABLES}{viii}{section*.5}}
\@writefile{toc}{\renewcommand {\@dotsep }{400}}
\@writefile{lof}{\thispagestyle {fancy}}
\@writefile{toc}{\renewcommand {\@dotsep }{400}}
\@writefile{toc}{\contentsline {chapter}{\bfseries  LIST OF FIGURES}{x}{section*.7}}
\@writefile{toc}{\renewcommand {\@dotsep }{400}}
\@writefile{lol}{\thispagestyle {fancy}}
\@writefile{toc}{\renewcommand {\@dotsep }{400}}
\@writefile{toc}{\contentsline {chapter}{LIST OF CODED LISTINGS}{xii}{section*.9}}
\@writefile{toc}{\renewcommand {\@dotsep }{400}}
\HyPL@Entry{14<</S/D>>}
\@writefile{toc}{\contentsline {chapter}{\nocolonnumberline {\bfseries  CHAPTER\nobreakspace {}I} \bfseries  \MakeUppercase  {How to use \LaTeX  \nobreakspace {} for your thesis?}}{1}{chapter.1}}
\newlabel{ch:latex}{{I}{1}{How to use \LaTeX ~ for your thesis?}{chapter.1}{}}
\@writefile{toc}{\contentsline {section}{\nocolonnumberline {1.1}Whait is \LaTeX  ?}{1}{section.1.1}}
\@writefile{toc}{\contentsline {subsection}{\nocolonnumberline {1.1.1}subsection}{1}{subsection.1.1.1}}
\@writefile{toc}{\contentsline {section}{\nocolonnumberline {1.2}\TeX  \nobreakspace {} structure}{1}{section.1.2}}
\newlabel{lst:texstruct}{{1.1}{1}{\TeX ~structure}{lstlisting.1.1}{}}
\@writefile{lol}{\contentsline {lstlisting}{\numberline {1.1}\TeX  \nobreakspace {}structure}{1}{lstlisting.1.1}}
\@writefile{toc}{\contentsline {section}{\nocolonnumberline {1.3}Switching the language}{2}{section.1.3}}
\citation{web:graphicx}
\citation{web:enumitem}
\citation{web:indentfirst}
\citation{web:fontspec}
\citation{web:xunicode}
\citation{web:xltxtra}
\citation{web:polyglossia}
\citation{web:setspace}
\citation{web:fancybox}
\citation{web:fancyhdr}
\citation{web:lastpage}
\citation{web:listings}
\citation{web:pdflscape}
\citation{web:caption}
\@writefile{toc}{\contentsline {section}{\nocolonnumberline {1.4}Generating ICT thesis}{3}{section.1.4}}
\providecommand*\caption@xref[2]{\@setref\relax\@undefined{#1}}
\newlabel{lst:texheader}{{1.2}{4}{\TeX ~file header}{lstlisting.1.2}{}}
\@writefile{lol}{\contentsline {lstlisting}{\numberline {1.2}\TeX  \nobreakspace {}file header}{4}{lstlisting.1.2}}
\@writefile{toc}{\contentsline {section}{\nocolonnumberline {1.5}Using thesis.tex}{4}{section.1.5}}
\newlabel{lst:authvar}{{1.3}{5}{Author's information}{lstlisting.1.3}{}}
\@writefile{lol}{\contentsline {lstlisting}{\numberline {1.3}Author's information}{5}{lstlisting.1.3}}
\newlabel{lst:advvar}{{1.4}{5}{Advisor's information}{lstlisting.1.4}{}}
\@writefile{lol}{\contentsline {lstlisting}{\numberline {1.4}Advisor's information}{5}{lstlisting.1.4}}
\newlabel{lst:thesisvar}{{1.5}{6}{Thesis's information}{lstlisting.1.5}{}}
\@writefile{lol}{\contentsline {lstlisting}{\numberline {1.5}Thesis's information}{6}{lstlisting.1.5}}
\@writefile{toc}{\contentsline {section}{\nocolonnumberline {1.6}Generating the page styles}{6}{section.1.6}}
\newlabel{lst:pagecmd}{{1.6}{7}{Page generator command}{lstlisting.1.6}{}}
\@writefile{lol}{\contentsline {lstlisting}{\numberline {1.6}Page generator command}{7}{lstlisting.1.6}}
\newlabel{lst:inputcmd}{{1.7}{7}{Call the external file via \textbackslash input}{lstlisting.1.7}{}}
\@writefile{lol}{\contentsline {lstlisting}{\numberline {1.7}Call the external file via \textbackslash input}{7}{lstlisting.1.7}}
\@writefile{toc}{\contentsline {chapter}{\nocolonnumberline {\bfseries  CHAPTER\nobreakspace {}II} \bfseries  \MakeUppercase  {\LaTeX  's\nobreakspace {}Arsenal}}{9}{chapter.2}}
\newlabel{ch:arsenal}{{II}{9}{\LaTeX 's~Arsenal}{chapter.2}{}}
\@writefile{toc}{\contentsline {section}{\nocolonnumberline {2.1}Sectioning}{9}{section.2.1}}
\newlabel{lst:section}{{2.1}{9}{Sectioning}{lstlisting.2.1}{}}
\@writefile{lol}{\contentsline {lstlisting}{\numberline {2.1}Sectioning}{9}{lstlisting.2.1}}
\@writefile{lof}{\contentsline {figure}{\numberline {2.1}{\ignorespaces Section arrangement Section arrangement Section arrangement Section arrangement Section arrangement Section arrangement Section arrangement Section arrangement Section arrangement Section arrangement Section arrangement Section arrangement\relax }}{10}{figure.caption.16}}
\newlabel{pic:section}{{2.1}{10}{Section arrangement Section arrangement Section arrangement Section arrangement Section arrangement Section arrangement Section arrangement Section arrangement Section arrangement Section arrangement Section arrangement Section arrangement\relax }{figure.caption.16}{}}
\@writefile{lof}{\contentsline {figure}{\numberline {2.2}{\ignorespaces Section arrangement\relax }}{10}{figure.caption.17}}
\newlabel{pic:section}{{2.2}{10}{Section arrangement\relax }{figure.caption.17}{}}
\@writefile{lof}{\contentsline {figure}{\numberline {2.3}{\ignorespaces Section arrangement\relax }}{10}{figure.caption.18}}
\newlabel{pic:section}{{2.3}{10}{Section arrangement\relax }{figure.caption.18}{}}
\@writefile{lof}{\contentsline {figure}{\numberline {2.4}{\ignorespaces Section arrangement\relax }}{11}{figure.caption.19}}
\newlabel{pic:section}{{2.4}{11}{Section arrangement\relax }{figure.caption.19}{}}
\@writefile{lof}{\contentsline {figure}{\numberline {2.5}{\ignorespaces Section arrangement\relax }}{11}{figure.caption.20}}
\newlabel{pic:section}{{2.5}{11}{Section arrangement\relax }{figure.caption.20}{}}
\@writefile{lof}{\contentsline {figure}{\numberline {2.6}{\ignorespaces Section arrangement\relax }}{11}{figure.caption.21}}
\newlabel{pic:section}{{2.6}{11}{Section arrangement\relax }{figure.caption.21}{}}
\@writefile{lof}{\contentsline {figure}{\numberline {2.7}{\ignorespaces Section arrangement\relax }}{12}{figure.caption.22}}
\newlabel{pic:section}{{2.7}{12}{Section arrangement\relax }{figure.caption.22}{}}
\@writefile{lof}{\contentsline {figure}{\numberline {2.8}{\ignorespaces Section arrangement\relax }}{12}{figure.caption.23}}
\newlabel{pic:section}{{2.8}{12}{Section arrangement\relax }{figure.caption.23}{}}
\@writefile{lof}{\contentsline {figure}{\numberline {2.9}{\ignorespaces Section arrangement\relax }}{12}{figure.caption.24}}
\newlabel{pic:section}{{2.9}{12}{Section arrangement\relax }{figure.caption.24}{}}
\@writefile{lof}{\contentsline {figure}{\numberline {2.10}{\ignorespaces Section arrangement\relax }}{13}{figure.caption.25}}
\newlabel{pic:section}{{2.10}{13}{Section arrangement\relax }{figure.caption.25}{}}
\@writefile{lof}{\contentsline {figure}{\numberline {2.11}{\ignorespaces Section arrangement\relax }}{13}{figure.caption.26}}
\newlabel{pic:section}{{2.11}{13}{Section arrangement\relax }{figure.caption.26}{}}
\@writefile{lof}{\contentsline {figure}{\numberline {2.12}{\ignorespaces Section arrangement\relax }}{13}{figure.caption.27}}
\newlabel{pic:section}{{2.12}{13}{Section arrangement\relax }{figure.caption.27}{}}
\@writefile{lof}{\contentsline {figure}{\numberline {2.13}{\ignorespaces Section arrangement\relax }}{14}{figure.caption.28}}
\newlabel{pic:section}{{2.13}{14}{Section arrangement\relax }{figure.caption.28}{}}
\@writefile{lof}{\contentsline {figure}{\numberline {2.14}{\ignorespaces Section arrangement\relax }}{14}{figure.caption.29}}
\newlabel{pic:section}{{2.14}{14}{Section arrangement\relax }{figure.caption.29}{}}
\@writefile{lof}{\contentsline {figure}{\numberline {2.15}{\ignorespaces Section arrangement\relax }}{14}{figure.caption.30}}
\newlabel{pic:section}{{2.15}{14}{Section arrangement\relax }{figure.caption.30}{}}
\@writefile{lof}{\contentsline {figure}{\numberline {2.16}{\ignorespaces Section arrangement\relax }}{15}{figure.caption.31}}
\newlabel{pic:section}{{2.16}{15}{Section arrangement\relax }{figure.caption.31}{}}
\@writefile{lof}{\contentsline {figure}{\numberline {2.17}{\ignorespaces Section arrangement\relax }}{15}{figure.caption.32}}
\newlabel{pic:section}{{2.17}{15}{Section arrangement\relax }{figure.caption.32}{}}
\@writefile{lof}{\contentsline {figure}{\numberline {2.18}{\ignorespaces Section arrangement\relax }}{15}{figure.caption.33}}
\newlabel{pic:section}{{2.18}{15}{Section arrangement\relax }{figure.caption.33}{}}
\@writefile{lof}{\contentsline {figure}{\numberline {2.19}{\ignorespaces Section arrangement\relax }}{16}{figure.caption.34}}
\newlabel{pic:section}{{2.19}{16}{Section arrangement\relax }{figure.caption.34}{}}
\@writefile{lof}{\contentsline {figure}{\numberline {2.20}{\ignorespaces Section arrangement\relax }}{16}{figure.caption.35}}
\newlabel{pic:section}{{2.20}{16}{Section arrangement\relax }{figure.caption.35}{}}
\@writefile{lof}{\contentsline {figure}{\numberline {2.21}{\ignorespaces Section arrangement\relax }}{16}{figure.caption.36}}
\newlabel{pic:section}{{2.21}{16}{Section arrangement\relax }{figure.caption.36}{}}
\@writefile{lof}{\contentsline {figure}{\numberline {2.22}{\ignorespaces Section arrangement\relax }}{17}{figure.caption.37}}
\newlabel{pic:section}{{2.22}{17}{Section arrangement\relax }{figure.caption.37}{}}
\@writefile{lof}{\contentsline {figure}{\numberline {2.23}{\ignorespaces Section arrangement\relax }}{17}{figure.caption.38}}
\newlabel{pic:section}{{2.23}{17}{Section arrangement\relax }{figure.caption.38}{}}
\@writefile{lof}{\contentsline {figure}{\numberline {2.24}{\ignorespaces Section arrangement\relax }}{17}{figure.caption.39}}
\newlabel{pic:section}{{2.24}{17}{Section arrangement\relax }{figure.caption.39}{}}
\@writefile{lof}{\contentsline {figure}{\numberline {2.25}{\ignorespaces Section arrangement\relax }}{18}{figure.caption.40}}
\newlabel{pic:section}{{2.25}{18}{Section arrangement\relax }{figure.caption.40}{}}
\@writefile{lof}{\contentsline {figure}{\numberline {2.26}{\ignorespaces Section arrangement\relax }}{18}{figure.caption.41}}
\newlabel{pic:section}{{2.26}{18}{Section arrangement\relax }{figure.caption.41}{}}
\@writefile{lof}{\contentsline {figure}{\numberline {2.27}{\ignorespaces Section arrangement\relax }}{18}{figure.caption.42}}
\newlabel{pic:section}{{2.27}{18}{Section arrangement\relax }{figure.caption.42}{}}
\@writefile{lof}{\contentsline {figure}{\numberline {2.28}{\ignorespaces Section arrangement\relax }}{19}{figure.caption.43}}
\newlabel{pic:section}{{2.28}{19}{Section arrangement\relax }{figure.caption.43}{}}
\citation{web:breaklines}
\@writefile{toc}{\contentsline {section}{\nocolonnumberline {2.2}Paragraph}{20}{section.2.2}}
\newlabel{lst:extparagraph}{{2.2}{20}{Extra spaces between paragraphs}{lstlisting.2.2}{}}
\@writefile{lol}{\contentsline {lstlisting}{\numberline {2.2}Extra spaces between paragraphs}{20}{lstlisting.2.2}}
\@writefile{lot}{\contentsline {table}{\numberline {2.1}{\ignorespaces Commands to break the line}}{20}{table.caption.45}}
\newlabel{table:breaks}{{2.1}{20}{Commands to break the line}{table.caption.45}{}}
\@writefile{toc}{\contentsline {section}{\nocolonnumberline {2.3}Paragraph alignment}{20}{section.2.3}}
\@writefile{toc}{\contentsline {subsection}{\nocolonnumberline {2.3.1}Indentation Indentation Indentation Indentation Indentation Indentation Indentation }{21}{subsection.2.3.1}}
\newlabel{lst:indentspace}{{2.3}{21}{Indent spaces}{lstlisting.2.3}{}}
\@writefile{lol}{\contentsline {lstlisting}{\numberline {2.3}Indent spaces}{21}{lstlisting.2.3}}
\@writefile{toc}{\contentsline {subsection}{\nocolonnumberline {2.3.2}Format alignment}{21}{subsection.2.3.2}}
\newlabel{sec:paralign:txtalign}{{2.3.2}{21}{\LaTeX 's~Arsenal}{subsection.2.3.2}{}}
\@writefile{toc}{\contentsline {section}{\nocolonnumberline {2.4}Bullets and Numbering}{22}{section.2.4}}
\newlabel{lst:items}{{2.4}{23}{Using itemize and enumerate}{lstlisting.2.4}{}}
\@writefile{lol}{\contentsline {lstlisting}{\numberline {2.4}Using itemize and enumerate}{23}{lstlisting.2.4}}
\newlabel{lst:compitems}{{2.5}{23}{Using itemize and enumerate}{lstlisting.2.5}{}}
\@writefile{lol}{\contentsline {lstlisting}{\numberline {2.5}Using itemize and enumerate}{23}{lstlisting.2.5}}
\@writefile{toc}{\contentsline {section}{\nocolonnumberline {2.5}Figure}{24}{section.2.5}}
\newlabel{lst:figstructure}{{2.6}{24}{The figure environment structure}{lstlisting.2.6}{}}
\@writefile{lol}{\contentsline {lstlisting}{\numberline {2.6}The figure environment structure}{24}{lstlisting.2.6}}
\@writefile{lof}{\contentsline {figure}{\numberline {2.29}{\ignorespaces Image with 50 asldjfks laskjdflj\% scaling\relax }}{24}{figure.caption.50}}
\newlabel{pic:50size}{{2.29}{24}{Image with 50 asldjfks laskjdflj\% scaling\relax }{figure.caption.50}{}}
\@writefile{lof}{\contentsline {figure}{\numberline {2.30}{\ignorespaces Image with 25\% scaling\relax }}{24}{figure.caption.50}}
\newlabel{pic:25size}{{2.30}{24}{Image with 25\% scaling\relax }{figure.caption.50}{}}
\@writefile{lot}{\contentsline {table}{\numberline {2.2}{\ignorespaces Placement specifiers}}{25}{table.caption.51}}
\newlabel{table:placement}{{2.2}{25}{Placement specifiers}{table.caption.51}{}}
\newlabel{lst:subcap}{{2.7}{25}{Using subcaption package}{lstlisting.2.7}{}}
\@writefile{lol}{\contentsline {lstlisting}{\numberline {2.7}Using subcaption package}{25}{lstlisting.2.7}}
\newlabel{pic:subfig:cat1}{{2.31a}{26}{Cat1\relax }{figure.caption.52}{}}
\newlabel{sub@pic:subfig:cat1}{{a}{26}{Cat1\relax }{figure.caption.52}{}}
\newlabel{pic:subfig:cat2}{{2.31b}{26}{Cat2\relax }{figure.caption.52}{}}
\newlabel{sub@pic:subfig:cat2}{{b}{26}{Cat2\relax }{figure.caption.52}{}}
\@writefile{lof}{\contentsline {figure}{\numberline {2.31}{\ignorespaces Subfigure\relax }}{26}{figure.caption.52}}
\newlabel{pic:subfig}{{2.31}{26}{Subfigure\relax }{figure.caption.52}{}}
\@writefile{toc}{\contentsline {section}{\nocolonnumberline {2.6}Table}{26}{section.2.6}}
\@writefile{lot}{\contentsline {table}{\numberline {2.3}{\ignorespaces Table spec argument}}{26}{table.caption.53}}
\newlabel{table:tablespec}{{2.3}{26}{Table spec argument}{table.caption.53}{}}
\newlabel{lst:table}{{2.8}{27}{Create the table}{lstlisting.2.8}{}}
\@writefile{lol}{\contentsline {lstlisting}{\numberline {2.8}Create the table}{27}{lstlisting.2.8}}
\@writefile{lot}{\contentsline {table}{\numberline {2.4}{\ignorespaces Table caption appearing in LoT}}{27}{table.caption.55}}
\newlabel{table:example}{{2.4}{27}{Table caption appearing in LoT}{table.caption.55}{}}
\@writefile{lot}{\contentsline {table}{\numberline {2.5}{\ignorespaces Table caption appearing in LoT}}{27}{table.caption.56}}
\newlabel{table:example}{{2.5}{27}{Table caption appearing in LoT}{table.caption.56}{}}
\@writefile{lot}{\contentsline {table}{\numberline {2.6}{\ignorespaces Table caption appearing in LoT}}{28}{table.caption.57}}
\newlabel{table:example}{{2.6}{28}{Table caption appearing in LoT}{table.caption.57}{}}
\@writefile{lot}{\contentsline {table}{\numberline {2.7}{\ignorespaces Table caption appearing in LoT}}{28}{table.caption.58}}
\newlabel{table:example}{{2.7}{28}{Table caption appearing in LoT}{table.caption.58}{}}
\@writefile{lot}{\contentsline {table}{\numberline {2.8}{\ignorespaces Table caption appearing in LoT}}{29}{table.caption.59}}
\newlabel{table:example}{{2.8}{29}{Table caption appearing in LoT}{table.caption.59}{}}
\@writefile{lot}{\contentsline {table}{\numberline {2.9}{\ignorespaces Table caption appearing in LoT}}{29}{table.caption.60}}
\newlabel{table:example}{{2.9}{29}{Table caption appearing in LoT}{table.caption.60}{}}
\@writefile{lot}{\contentsline {table}{\numberline {2.10}{\ignorespaces Table caption appearing in LoT}}{29}{table.caption.61}}
\newlabel{table:example}{{2.10}{29}{Table caption appearing in LoT}{table.caption.61}{}}
\@writefile{lot}{\contentsline {table}{\numberline {2.11}{\ignorespaces Table caption appearing in LoT Table caption appearing in LoT Table caption Tppearing in LoT Table caption appearing in LoT}}{29}{table.caption.62}}
\newlabel{table:example}{{2.11}{29}{Table caption appearing in LoT Table caption appearing in LoT Table caption Tppearing in LoT Table caption appearing in LoT}{table.caption.62}{}}
\@writefile{lot}{\contentsline {table}{\numberline {2.12}{\ignorespaces Table caption appearing in LoT}}{29}{table.caption.63}}
\newlabel{table:example}{{2.12}{29}{Table caption appearing in LoT}{table.caption.63}{}}
\@writefile{lot}{\contentsline {table}{\numberline {2.13}{\ignorespaces Table caption appearing in LoT}}{29}{table.caption.64}}
\newlabel{table:example}{{2.13}{29}{Table caption appearing in LoT}{table.caption.64}{}}
\@writefile{lot}{\contentsline {table}{\numberline {2.14}{\ignorespaces Table caption appearing in LoT}}{29}{table.caption.65}}
\newlabel{table:example}{{2.14}{29}{Table caption appearing in LoT}{table.caption.65}{}}
\@writefile{lot}{\contentsline {table}{\numberline {2.15}{\ignorespaces Table caption appearing in LoT}}{29}{table.caption.66}}
\newlabel{table:example}{{2.15}{29}{Table caption appearing in LoT}{table.caption.66}{}}
\@writefile{toc}{\contentsline {section}{\nocolonnumberline {2.7}Page sectioning}{30}{section.2.7}}
\newlabel{lst:minipage}{{2.9}{30}{Minipage example}{lstlisting.2.9}{}}
\@writefile{lol}{\contentsline {lstlisting}{\numberline {2.9}Minipage example}{30}{lstlisting.2.9}}
\@writefile{lof}{\contentsline {figure}{\numberline {2.32}{\ignorespaces A cat\relax }}{30}{figure.caption.68}}
\newlabel{pic:sidebyside}{{2.32}{30}{A cat\relax }{figure.caption.68}{}}
\@writefile{toc}{\contentsline {section}{\nocolonnumberline {2.8}Landscape mode}{30}{section.2.8}}
\newlabel{sec:landscape}{{2.8}{31}{\LaTeX 's~Arsenal}{section.2.8}{}}
\newlabel{lst:landscape}{{2.10}{31}{Enable landscape mode}{lstlisting.2.10}{}}
\@writefile{lol}{\contentsline {lstlisting}{\numberline {2.10}Enable landscape mode}{31}{lstlisting.2.10}}
\newlabel{page:landscape}{{2.8}{32}{\LaTeX 's~Arsenal}{lstnumber.2.10.6}{}}
\@writefile{toc}{\contentsline {section}{\nocolonnumberline {2.9}Text style, type, and size}{33}{section.2.9}}
\@writefile{toc}{\contentsline {subsection}{\nocolonnumberline {2.9.1}Text style}{33}{subsection.2.9.1}}
\newlabel{lst:cmdfont}{{2.11}{33}{Command for setting font environment}{lstlisting.2.11}{}}
\@writefile{lol}{\contentsline {lstlisting}{\numberline {2.11}Command for setting font environment}{33}{lstlisting.2.11}}
\@writefile{toc}{\contentsline {subsection}{\nocolonnumberline {2.9.2}Text size}{33}{subsection.2.9.2}}
\@writefile{toc}{\contentsline {section}{\nocolonnumberline {2.10}Mathematic Formular}{34}{section.2.10}}
\newlabel{lst:mathenv}{{2.12}{34}{Formular environment declaration}{lstlisting.2.12}{}}
\@writefile{lol}{\contentsline {lstlisting}{\numberline {2.12}Formular environment declaration}{34}{lstlisting.2.12}}
\@writefile{toc}{\contentsline {subsection}{\nocolonnumberline {2.10.1}Numbering the multiple equations}{35}{subsection.2.10.1}}
\newlabel{lst:muleq}{{2.13}{35}{Multiple equations}{lstlisting.2.13}{}}
\@writefile{lol}{\contentsline {lstlisting}{\numberline {2.13}Multiple equations}{35}{lstlisting.2.13}}
\newlabel{eq:eq3}{{II.2}{36}{\LaTeX 's~Arsenal}{equation.2.10.2}{}}
\newlabel{eq:eq1}{{II.3}{36}{\LaTeX 's~Arsenal}{equation.2.10.3}{}}
\newlabel{eq:eq2}{{II.4}{36}{\LaTeX 's~Arsenal}{equation.2.10.4}{}}
\@writefile{toc}{\contentsline {subsection}{\nocolonnumberline {2.10.2}Subscript and Superscript}{36}{subsection.2.10.2}}
\@writefile{toc}{\contentsline {subsection}{\nocolonnumberline {2.10.3}Spacing in math mode}{37}{subsection.2.10.3}}
\newlabel{lst:spmath}{{2.14}{37}{Create blank space in math environment}{lstlisting.2.14}{}}
\@writefile{lol}{\contentsline {lstlisting}{\numberline {2.14}Create blank space in math environment}{37}{lstlisting.2.14}}
\@writefile{toc}{\contentsline {subsection}{\nocolonnumberline {2.10.4}Adjust delimiter size}{37}{subsection.2.10.4}}
\newlabel{lst:delimiter}{{2.15}{38}{The differences of delimiter size when using and not using the \textbackslash left \textbackslash right command}{lstlisting.2.15}{}}
\@writefile{lol}{\contentsline {lstlisting}{\numberline {2.15}The differences of delimiter size when using and not using the \textbackslash left \textbackslash right command.}{38}{lstlisting.2.15}}
\newlabel{eq:leftright}{{II.5}{38}{\LaTeX 's~Arsenal}{equation.2.10.5}{}}
\newlabel{eq:noleftright}{{II.6}{38}{\LaTeX 's~Arsenal}{equation.2.10.6}{}}
\@writefile{lot}{\contentsline {table}{\numberline {2.16}{\ignorespaces The apperances of difference \textbackslash left and \textbackslash right}}{38}{table.caption.73}}
\newlabel{table:delimitersize}{{2.16}{38}{The apperances of difference \textbackslash left and \textbackslash right}{table.caption.73}{}}
\@writefile{toc}{\contentsline {section}{\nocolonnumberline {2.11}Adding footnotesSometimes the extra content is necessary to provide more readability,}{38}{section.2.11}}
\newlabel{lst:footnote}{{2.16}{39}{Adding footnote}{lstlisting.2.16}{}}
\@writefile{lol}{\contentsline {lstlisting}{\numberline {2.16}Adding footnote}{39}{lstlisting.2.16}}
\@writefile{toc}{\contentsline {chapter}{\nocolonnumberline {\bfseries  CHAPTER\nobreakspace {}III} \bfseries  \MakeUppercase  {Sriting bib extension fileWriting bib extension fileWriting bib extension file}}{40}{chapter.3}}
\newlabel{chap:bibextension}{{III}{40}{Sriting bib extension fileWriting bib extension fileWriting bib extension file}{chapter.3}{}}
\newlabel{lst:ref}{{3.1}{40}{Define the reference format}{lstlisting.3.1}{}}
\@writefile{lol}{\contentsline {lstlisting}{\numberline {3.1}Define the reference format}{40}{lstlisting.3.1}}
\citation{web:latexdocumentstructure}
\newlabel{lst:bibtexinfo}{{3.2}{41}{BibTex data}{lstlisting.3.2}{}}
\@writefile{lol}{\contentsline {lstlisting}{\numberline {3.2}BibTex data}{41}{lstlisting.3.2}}
\bibstyle{muthesis2017.bst}
\bibdata{reference}
\bibcite{web:graphicx}{1}
\bibcite{web:enumitem}{2}
\bibcite{web:indentfirst}{3}
\bibcite{web:fontspec}{4}
\bibcite{web:xunicode}{5}
\bibcite{web:xltxtra}{6}
\bibcite{web:polyglossia}{7}
\bibcite{web:setspace}{8}
\bibcite{web:fancybox}{9}
\bibcite{web:fancyhdr}{10}
\bibcite{web:lastpage}{11}
\bibcite{web:listings}{12}
\bibcite{web:pdflscape}{13}
\bibcite{web:caption}{14}
\@writefile{toc}{\setcounter {tocdepth}{0}}
\@writefile{toc}{\renewcommand {\@dotsep }{400}}
\@writefile{toc}{\contentsline {chapter}{\bfseries  REFERENCES}{43}{lstnumber.3.2.24}}
\bibcite{web:breaklines}{15}
\bibcite{web:latexdocumentstructure}{16}
\@writefile{toc}{\contentsline {chapter}{\bfseries  {APPENDICES}}{45}{lstnumber.3.2.24}}
\@writefile{toc}{\setcounter {tocdepth}{1}}
\@writefile{toc}{\renewcommand {\@dotsep }{400}}
\@writefile{toc}{\@inappendixtrue }
\@writefile{toc}{\contentsline {section}{Appendix A\hspace  {.7em}\LaTeX  \nobreakspace {} Mathematic symbol and font styleMathematic symbol and font style}{46}{appendix.1}}
\@writefile{toc}{\@inappendixfalse }
\newlabel{apd:mathcmd}{{A}{46}{Sriting bib extension fileWriting bib extension fileWriting bib extension file}{appendix.1}{}}
\@writefile{lot}{\contentsline {table}{\numberline {A.1}{\ignorespaces Greek Letters}}{46}{table.caption.77}}
\newlabel{table:greek}{{A.1}{46}{Greek Letters}{table.caption.77}{}}
\@writefile{lot}{\contentsline {table}{\numberline {A.2}{\ignorespaces Binary Operation Symbols}}{46}{table.caption.78}}
\newlabel{table:bin}{{A.2}{46}{Binary Operation Symbols}{table.caption.78}{}}
\@writefile{lot}{\contentsline {table}{\numberline {A.3}{\ignorespaces Relation Symbols}}{47}{table.caption.79}}
\newlabel{table:rel}{{A.3}{47}{Relation Symbols}{table.caption.79}{}}
\@writefile{lot}{\contentsline {table}{\numberline {A.4}{\ignorespaces Punctuation Symbols}}{47}{table.caption.80}}
\newlabel{table:punct}{{A.4}{47}{Punctuation Symbols}{table.caption.80}{}}
\@writefile{lot}{\contentsline {table}{\numberline {A.5}{\ignorespaces Arrow Symbols}}{47}{table.caption.81}}
\newlabel{table:arrow}{{A.5}{47}{Arrow Symbols}{table.caption.81}{}}
\@writefile{lot}{\contentsline {table}{\numberline {A.6}{\ignorespaces Miscellaneous Symbols}}{47}{table.caption.82}}
\newlabel{table:ord}{{A.6}{47}{Miscellaneous Symbols}{table.caption.82}{}}
\@writefile{lot}{\contentsline {table}{\numberline {A.7}{\ignorespaces Variable-sized Symbols}}{48}{table.caption.83}}
\newlabel{table:op}{{A.7}{48}{Variable-sized Symbols}{table.caption.83}{}}
\@writefile{lot}{\contentsline {table}{\numberline {A.8}{\ignorespaces Log-like Symbols}}{48}{table.caption.84}}
\newlabel{table:log}{{A.8}{48}{Log-like Symbols}{table.caption.84}{}}
\@writefile{lot}{\contentsline {table}{\numberline {A.9}{\ignorespaces Delimiters}}{48}{table.caption.85}}
\newlabel{table:dels}{{A.9}{48}{Delimiters}{table.caption.85}{}}
\@writefile{lot}{\contentsline {table}{\numberline {A.10}{\ignorespaces Large Delimiters}}{48}{table.caption.86}}
\newlabel{table:ldels}{{A.10}{48}{Large Delimiters}{table.caption.86}{}}
\@writefile{lot}{\contentsline {table}{\numberline {A.11}{\ignorespaces Math mode accents}}{48}{table.caption.87}}
\newlabel{table:accent}{{A.11}{48}{Math mode accents}{table.caption.87}{}}
\@writefile{lot}{\contentsline {table}{\numberline {A.12}{\ignorespaces Math constructions}}{48}{table.caption.88}}
\newlabel{table:other}{{A.12}{48}{Math constructions}{table.caption.88}{}}
\@writefile{lot}{\contentsline {table}{\numberline {A.13}{\ignorespaces Font in math mode}}{49}{table.caption.89}}
\newlabel{table:font}{{A.13}{49}{Font in math mode}{table.caption.89}{}}
\@writefile{toc}{\setcounter {tocdepth}{1}}
\@writefile{toc}{\renewcommand {\@dotsep }{400}}
\@writefile{toc}{\@inappendixtrue }
\@writefile{toc}{\contentsline {section}{Appendix B\hspace  {.7em}Refernce types in BibTeX }{50}{appendix.2}}
\@writefile{toc}{\@inappendixfalse }
\newlabel{appd:bibtex}{{B}{50}{Sriting bib extension fileWriting bib extension fileWriting bib extension file}{appendix.2}{}}
\newlabel{lst:bibarticle}{{B.1}{50}{Article}{lstlisting.3.1}{}}
\@writefile{lol}{\contentsline {lstlisting}{\numberline {B.1}Article}{50}{lstlisting.3.1}}
\newlabel{lst:bibunpub}{{B.2}{50}{Unpublished document}{lstlisting.3.2}{}}
\@writefile{lol}{\contentsline {lstlisting}{\numberline {B.2}Unpublished document}{50}{lstlisting.3.2}}
\newlabel{lst:bibinproceeding}{{B.3}{51}{Inproceeding paper}{lstlisting.3.3}{}}
\@writefile{lol}{\contentsline {lstlisting}{\numberline {B.3}Inproceeding paper}{51}{lstlisting.3.3}}
\newlabel{lst:bibproceeding}{{B.4}{51}{Proceeding paper}{lstlisting.3.4}{}}
\@writefile{lol}{\contentsline {lstlisting}{\numberline {B.4}Proceeding paper}{51}{lstlisting.3.4}}
\newlabel{lst:bibtech}{{B.5}{52}{Technical report}{lstlisting.3.5}{}}
\@writefile{lol}{\contentsline {lstlisting}{\numberline {B.5}Technical report}{52}{lstlisting.3.5}}
\newlabel{lst:bibweb}{{B.6}{52}{Website}{lstlisting.3.6}{}}
\@writefile{lol}{\contentsline {lstlisting}{\numberline {B.6}Website}{52}{lstlisting.3.6}}
\newlabel{lst:bibphd}{{B.7}{53}{PhD. and Master's thesis}{lstlisting.3.7}{}}
\@writefile{lol}{\contentsline {lstlisting}{\numberline {B.7}PhD. and Master's thesis}{53}{lstlisting.3.7}}
\newlabel{lst:bibbook}{{B.8}{53}{Book}{lstlisting.3.8}{}}
\@writefile{lol}{\contentsline {lstlisting}{\numberline {B.8}Book}{53}{lstlisting.3.8}}
\newlabel{lst:bibmisc}{{B.9}{54}{Miscellaneous}{lstlisting.3.9}{}}
\@writefile{lol}{\contentsline {lstlisting}{\numberline {B.9}Miscellaneous}{54}{lstlisting.3.9}}
\@writefile{toc}{\setcounter {tocdepth}{0}}
\@writefile{toc}{\renewcommand {\@dotsep }{400}}
\@writefile{toc}{\contentsline {chapter}{\bfseries  BIOGRAPHY}{55}{lstnumber.B.9.10}}
\newlabel{LastPage}{{}{55}{}{page.55}{}}
\xdef\lastpage@lastpage{55}
\xdef\lastpage@lastpageHy{55}
